{
    "count": 37,
    "next": "http://localhost:8000/api/v1/report/?date_range=last_6_month&ordering=name&page=2&page_size=10",
    "previous": null,
    "results": [
        {
            "name": "Job template 11",
            "runs": 1,
            "elapsed": "315.00",
            "cluster": 2,
            "elapsed_str": "5min 15sec",
            "num_hosts": 1,
            "time_taken_manually_execute_minutes": 40,
            "time_taken_create_automation_minutes": 63,
            "successful_runs": 1,
            "failed_runs": 0,
            "automated_costs": "3165.75",
            "manual_costs": "1800.00",
            "savings": "-1365.75",
            "job_template_id": 111,
            "time_savings": "-1695.00",
            "time_savings_str": "-28min -15sec"
        },
        {
            "name": "Job template 13",
            "runs": 1,
            "elapsed": "801.20",
            "cluster": 2,
            "elapsed_str": "13min 21sec",
            "num_hosts": 5,
            "time_taken_manually_execute_minutes": 60,
            "time_taken_create_automation_minutes": 60,
            "successful_runs": 1,
            "failed_runs": 0,
            "automated_costs": "3541.26",
            "manual_costs": "13500.00",
            "savings": "9958.74",
            "job_template_id": 113,
            "time_savings": "13598.80",
            "time_savings_str": "3h 46min 38sec"
        },
        {
            "name": "Job template 2",
            "runs": 1,
            "elapsed": "850.30",
            "cluster": 2,
            "elapsed_str": "14min 10sec",
            "num_hosts": 8,
            "time_taken_manually_execute_minutes": 60,
            "time_taken_create_automation_minutes": 60,
            "successful_runs": 1,
            "failed_runs": 0,
            "automated_costs": "3592.82",
            "manual_costs": "21600.00",
            "savings": "18007.18",
            "job_template_id": 102,
            "time_savings": "24349.70",
            "time_savings_str": "6h 45min 49sec"
        },
        {
            "name": "Job template 22",
            "runs": 2,
            "elapsed": "1479.75",
            "cluster": 2,
            "elapsed_str": "24min 39sec",
            "num_hosts": 12,
            "time_taken_manually_execute_minutes": 60,
            "time_taken_create_automation_minutes": 60,
            "successful_runs": 2,
            "failed_runs": 0,
            "automated_costs": "4253.74",
            "manual_costs": "32400.00",
            "savings": "28146.26",
            "job_template_id": 122,
            "time_savings": "38120.25",
            "time_savings_str": "10h 35min 20sec"
        },
        {
            "name": "Job template 23",
            "runs": 2,
            "elapsed": "858.85",
            "cluster": 2,
            "elapsed_str": "14min 18sec",
            "num_hosts": 11,
            "time_taken_manually_execute_minutes": 60,
            "time_taken_create_automation_minutes": 60,
            "successful_runs": 2,
            "failed_runs": 0,
            "automated_costs": "3601.79",
            "manual_costs": "29700.00",
            "savings": "26098.21",
            "job_template_id": 123,
            "time_savings": "35141.15",
            "time_savings_str": "9h 45min 41sec"
        },
        {
            "name": "Job template 25",
            "runs": 1,
            "elapsed": "453.65",
            "cluster": 2,
            "elapsed_str": "7min 33sec",
            "num_hosts": 3,
            "time_taken_manually_execute_minutes": 60,
            "time_taken_create_automation_minutes": 60,
            "successful_runs": 1,
            "failed_runs": 0,
            "automated_costs": "3176.33",
            "manual_costs": "8100.00",
            "savings": "4923.67",
            "job_template_id": 125,
            "time_savings": "6746.35",
            "time_savings_str": "1h 52min 26sec"
        },
        {
            "name": "Job template 29",
            "runs": 2,
            "elapsed": "1296.00",
            "cluster": 2,
            "elapsed_str": "21min 36sec",
            "num_hosts": 3,
            "time_taken_manually_execute_minutes": 60,
            "time_taken_create_automation_minutes": 60,
            "successful_runs": 2,
            "failed_runs": 0,
            "automated_costs": "4060.80",
            "manual_costs": "8100.00",
            "savings": "4039.20",
            "job_template_id": 129,
            "time_savings": "5904.00",
            "time_savings_str": "1h 38min 24sec"
        },
        {
            "name": "Job template 3",
            "runs": 2,
            "elapsed": "1219.40",
            "cluster": 2,
            "elapsed_str": "20min 19sec",
            "num_hosts": 12,
            "time_taken_manually_execute_minutes": 60,
            "time_taken_create_automation_minutes": 60,
            "successful_runs": 2,
            "failed_runs": 0,
            "automated_costs": "3980.37",
            "manual_costs": "32400.00",
            "savings": "28419.63",
            "job_template_id": 103,
            "time_savings": "38380.60",
            "time_savings_str": "10h 39min 40sec"
        },
        {
            "name": "Job template 30",
            "runs": 1,
            "elapsed": "704.30",
            "cluster": 2,
            "elapsed_str": "11min 44sec",
            "num_hosts": 9,
            "time_taken_manually_execute_minutes": 60,
            "time_taken_create_automation_minutes": 60,
            "successful_runs": 1,
            "failed_runs": 0,
            "automated_costs": "3439.52",
            "manual_costs": "24300.00",
            "savings": "20860.48",
            "job_template_id": 130,
            "time_savings": "28095.70",
            "time_savings_str": "7h 48min 15sec"
        },
        {
            "name": "Job template 37",
            "runs": 1,
            "elapsed": "957.65",
            "cluster": 2,
            "elapsed_str": "15min 57sec",
            "num_hosts": 5,
            "time_taken_manually_execute_minutes": 60,
            "time_taken_create_automation_minutes": 60,
            "successful_runs": 1,
            "failed_runs": 0,
            "automated_costs": "3705.53",
            "manual_costs": "13500.00",
            "savings": "9794.47",
            "job_template_id": 137,
            "time_savings": "13442.35",
            "time_savings_str": "3h 44min 2sec"
        }
    ]
}