{
    "count": 97,
    "next": "http://localhost:8000/api/v1/report/?date_range=month_to_date&ordering=name&organization=11&page=2&page_size=10",
    "previous": null,
    "results": [
        {
            "name": "Job template 1",
            "runs": 1,
            "elapsed": "527.85",
            "cluster": 2,
            "elapsed_str": "8min 47sec",
            "num_hosts": 7,
            "time_taken_manually_execute_minutes": 60,
            "time_taken_create_automation_minutes": 60,
            "successful_runs": 1,
            "failed_runs": 0,
            "automated_costs": "3254.24",
            "manual_costs": "18900.00",
            "savings": "15645.76",
            "job_template_id": 101,
            "time_savings": "21072.15",
            "time_savings_str": "5h 51min 12sec"
        },
        {
            "name": "Job template 10",
            "runs": 4,
            "elapsed": "2466.95",
            "cluster": 2,
            "elapsed_str": "41min 6sec",
            "num_hosts": 17,
            "time_taken_manually_execute_minutes": 60,
            "time_taken_create_automation_minutes": 60,
            "successful_runs": 4,
            "failed_runs": 0,
            "automated_costs": "5290.30",
            "manual_costs": "45900.00",
            "savings": "40609.70",
            "job_template_id": 110,
            "time_savings": "55133.05",
            "time_savings_str": "15h 18min 53sec"
        },
        {
            "name": "Job template 100",
            "runs": 3,
            "elapsed": "1481.55",
            "cluster": 2,
            "elapsed_str": "24min 41sec",
            "num_hosts": 12,
            "time_taken_manually_execute_minutes": 60,
            "time_taken_create_automation_minutes": 60,
            "successful_runs": 3,
            "failed_runs": 0,
            "automated_costs": "4255.63",
            "manual_costs": "32400.00",
            "savings": "28144.37",
            "job_template_id": 200,
            "time_savings": "38118.45",
            "time_savings_str": "10h 35min 18sec"
        },
        {
            "name": "Job template 11",
            "runs": 4,
            "elapsed": "1351.60",
            "cluster": 2,
            "elapsed_str": "22min 31sec",
            "num_hosts": 21,
            "time_taken_manually_execute_minutes": 40,
            "time_taken_create_automation_minutes": 63,
            "successful_runs": 4,
            "failed_runs": 0,
            "automated_costs": "4254.18",
            "manual_costs": "37800.00",
            "savings": "33545.82",
            "job_template_id": 111,
            "time_savings": "45268.40",
            "time_savings_str": "12h 34min 28sec"
        },
        {
            "name": "Job template 12",
            "runs": 3,
            "elapsed": "1477.35",
            "cluster": 2,
            "elapsed_str": "24min 37sec",
            "num_hosts": 17,
            "time_taken_manually_execute_minutes": 60,
            "time_taken_create_automation_minutes": 60,
            "successful_runs": 3,
            "failed_runs": 0,
            "automated_costs": "4251.22",
            "manual_costs": "45900.00",
            "savings": "41648.78",
            "job_template_id": 112,
            "time_savings": "56122.65",
            "time_savings_str": "15h 35min 22sec"
        },
        {
            "name": "Job template 13",
            "runs": 4,
            "elapsed": "859.75",
            "cluster": 2,
            "elapsed_str": "14min 19sec",
            "num_hosts": 15,
            "time_taken_manually_execute_minutes": 60,
            "time_taken_create_automation_minutes": 60,
            "successful_runs": 4,
            "failed_runs": 0,
            "automated_costs": "3602.74",
            "manual_costs": "40500.00",
            "savings": "36897.26",
            "job_template_id": 113,
            "time_savings": "49540.25",
            "time_savings_str": "13h 45min 40sec"
        },
        {
            "name": "Job template 14",
            "runs": 8,
            "elapsed": "2733.75",
            "cluster": 2,
            "elapsed_str": "45min 33sec",
            "num_hosts": 37,
            "time_taken_manually_execute_minutes": 60,
            "time_taken_create_automation_minutes": 60,
            "successful_runs": 8,
            "failed_runs": 0,
            "automated_costs": "5570.44",
            "manual_costs": "99900.00",
            "savings": "94329.56",
            "job_template_id": 114,
            "time_savings": "126866.25",
            "time_savings_str": "35h 14min 26sec"
        },
        {
            "name": "Job template 15",
            "runs": 5,
            "elapsed": "2046.45",
            "cluster": 2,
            "elapsed_str": "34min 6sec",
            "num_hosts": 17,
            "time_taken_manually_execute_minutes": 60,
            "time_taken_create_automation_minutes": 60,
            "successful_runs": 5,
            "failed_runs": 0,
            "automated_costs": "4848.77",
            "manual_costs": "45900.00",
            "savings": "41051.23",
            "job_template_id": 115,
            "time_savings": "55553.55",
            "time_savings_str": "15h 25min 53sec"
        },
        {
            "name": "Job template 16",
            "runs": 5,
            "elapsed": "2914.50",
            "cluster": 2,
            "elapsed_str": "48min 34sec",
            "num_hosts": 31,
            "time_taken_manually_execute_minutes": 60,
            "time_taken_create_automation_minutes": 60,
            "successful_runs": 5,
            "failed_runs": 0,
            "automated_costs": "5760.22",
            "manual_costs": "83700.00",
            "savings": "77939.78",
            "job_template_id": 116,
            "time_savings": "105085.50",
            "time_savings_str": "29h 11min 25sec"
        },
        {
            "name": "Job template 17",
            "runs": 5,
            "elapsed": "3437.35",
            "cluster": 2,
            "elapsed_str": "57min 17sec",
            "num_hosts": 33,
            "time_taken_manually_execute_minutes": 60,
            "time_taken_create_automation_minutes": 60,
            "successful_runs": 5,
            "failed_runs": 0,
            "automated_costs": "6309.22",
            "manual_costs": "89100.00",
            "savings": "82790.78",
            "job_template_id": 117,
            "time_savings": "111762.65",
            "time_savings_str": "31h 2min 42sec"
        }
    ]
}