{
    "count": 99,
    "next": "http://localhost:8000/api/v1/report/?date_range=month_to_date&ordering=name&page=2&page_size=10&project=10",
    "previous": null,
    "results": [
        {
            "name": "Job template 1",
            "runs": 5,
            "elapsed": "3086.00",
            "cluster": 2,
            "elapsed_str": "51min 26sec",
            "num_hosts": 26,
            "time_taken_manually_execute_minutes": 60,
            "time_taken_create_automation_minutes": 60,
            "successful_runs": 5,
            "failed_runs": 0,
            "automated_costs": "5940.30",
            "manual_costs": "70200.00",
            "savings": "64259.70",
            "job_template_id": 101,
            "time_savings": "86914.00",
            "time_savings_str": "24h 8min 34sec"
        },
        {
            "name": "Job template 10",
            "runs": 1,
            "elapsed": "306.95",
            "cluster": 2,
            "elapsed_str": "5min 6sec",
            "num_hosts": 8,
            "time_taken_manually_execute_minutes": 60,
            "time_taken_create_automation_minutes": 60,
            "successful_runs": 1,
            "failed_runs": 0,
            "automated_costs": "3022.30",
            "manual_costs": "21600.00",
            "savings": "18577.70",
            "job_template_id": 110,
            "time_savings": "24893.05",
            "time_savings_str": "6h 54min 53sec"
        },
        {
            "name": "Job template 100",
            "runs": 2,
            "elapsed": "510.90",
            "cluster": 2,
            "elapsed_str": "8min 30sec",
            "num_hosts": 8,
            "time_taken_manually_execute_minutes": 60,
            "time_taken_create_automation_minutes": 60,
            "successful_runs": 2,
            "failed_runs": 0,
            "automated_costs": "3236.44",
            "manual_costs": "21600.00",
            "savings": "18363.56",
            "job_template_id": 200,
            "time_savings": "24689.10",
            "time_savings_str": "6h 51min 29sec"
        },
        {
            "name": "Job template 11",
            "runs": 2,
            "elapsed": "1573.05",
            "cluster": 2,
            "elapsed_str": "26min 13sec",
            "num_hosts": 11,
            "time_taken_manually_execute_minutes": 40,
            "time_taken_create_automation_minutes": 63,
            "successful_runs": 2,
            "failed_runs": 0,
            "automated_costs": "4486.70",
            "manual_costs": "19800.00",
            "savings": "15313.30",
            "job_template_id": 111,
            "time_savings": "21046.95",
            "time_savings_str": "5h 50min 46sec"
        },
        {
            "name": "Job template 12",
            "runs": 6,
            "elapsed": "3160.15",
            "cluster": 2,
            "elapsed_str": "52min 40sec",
            "num_hosts": 35,
            "time_taken_manually_execute_minutes": 60,
            "time_taken_create_automation_minutes": 60,
            "successful_runs": 6,
            "failed_runs": 0,
            "automated_costs": "6018.16",
            "manual_costs": "94500.00",
            "savings": "88481.84",
            "job_template_id": 112,
            "time_savings": "119239.85",
            "time_savings_str": "33h 7min 19sec"
        },
        {
            "name": "Job template 13",
            "runs": 5,
            "elapsed": "3093.65",
            "cluster": 2,
            "elapsed_str": "51min 33sec",
            "num_hosts": 23,
            "time_taken_manually_execute_minutes": 60,
            "time_taken_create_automation_minutes": 60,
            "successful_runs": 5,
            "failed_runs": 0,
            "automated_costs": "5948.33",
            "manual_costs": "62100.00",
            "savings": "56151.67",
            "job_template_id": 113,
            "time_savings": "76106.35",
            "time_savings_str": "21h 8min 26sec"
        },
        {
            "name": "Job template 14",
            "runs": 3,
            "elapsed": "1199.45",
            "cluster": 2,
            "elapsed_str": "19min 59sec",
            "num_hosts": 18,
            "time_taken_manually_execute_minutes": 60,
            "time_taken_create_automation_minutes": 60,
            "successful_runs": 3,
            "failed_runs": 0,
            "automated_costs": "3959.42",
            "manual_costs": "48600.00",
            "savings": "44640.58",
            "job_template_id": 114,
            "time_savings": "60000.55",
            "time_savings_str": "16h 40min 0sec"
        },
        {
            "name": "Job template 15",
            "runs": 4,
            "elapsed": "2568.50",
            "cluster": 2,
            "elapsed_str": "42min 48sec",
            "num_hosts": 14,
            "time_taken_manually_execute_minutes": 60,
            "time_taken_create_automation_minutes": 60,
            "successful_runs": 4,
            "failed_runs": 0,
            "automated_costs": "5396.92",
            "manual_costs": "37800.00",
            "savings": "32403.08",
            "job_template_id": 115,
            "time_savings": "44231.50",
            "time_savings_str": "12h 17min 11sec"
        },
        {
            "name": "Job template 17",
            "runs": 3,
            "elapsed": "814.25",
            "cluster": 2,
            "elapsed_str": "13min 34sec",
            "num_hosts": 21,
            "time_taken_manually_execute_minutes": 60,
            "time_taken_create_automation_minutes": 60,
            "successful_runs": 3,
            "failed_runs": 0,
            "automated_costs": "3554.96",
            "manual_costs": "56700.00",
            "savings": "53145.04",
            "job_template_id": 117,
            "time_savings": "71185.75",
            "time_savings_str": "19h 46min 25sec"
        },
        {
            "name": "Job template 18",
            "runs": 1,
            "elapsed": "64.65",
            "cluster": 2,
            "elapsed_str": "1min 4sec",
            "num_hosts": 8,
            "time_taken_manually_execute_minutes": 60,
            "time_taken_create_automation_minutes": 60,
            "successful_runs": 1,
            "failed_runs": 0,
            "automated_costs": "2767.88",
            "manual_costs": "21600.00",
            "savings": "18832.12",
            "job_template_id": 118,
            "time_savings": "25135.35",
            "time_savings_str": "6h 58min 55sec"
        }
    ]
}