{
    "count": 100,
    "next": "http://localhost:8000/api/v1/report/?date_range=month_to_date&label=11&ordering=name&page=2&page_size=10",
    "previous": null,
    "results": [
        {
            "name": "Job template 1",
            "runs": 8,
            "elapsed": "3351.95",
            "cluster": 2,
            "elapsed_str": "55min 51sec",
            "num_hosts": 45,
            "time_taken_manually_execute_minutes": 60,
            "time_taken_create_automation_minutes": 60,
            "successful_runs": 8,
            "failed_runs": 0,
            "automated_costs": "6219.55",
            "manual_costs": "121500.00",
            "savings": "115280.45",
            "job_template_id": 101,
            "time_savings": "155048.05",
            "time_savings_str": "43h 4min 8sec"
        },
        {
            "name": "Job template 10",
            "runs": 4,
            "elapsed": "1530.95",
            "cluster": 2,
            "elapsed_str": "25min 30sec",
            "num_hosts": 11,
            "time_taken_manually_execute_minutes": 60,
            "time_taken_create_automation_minutes": 60,
            "successful_runs": 4,
            "failed_runs": 0,
            "automated_costs": "4307.50",
            "manual_costs": "29700.00",
            "savings": "25392.50",
            "job_template_id": 110,
            "time_savings": "34469.05",
            "time_savings_str": "9h 34min 29sec"
        },
        {
            "name": "Job template 100",
            "runs": 12,
            "elapsed": "6638.35",
            "cluster": 2,
            "elapsed_str": "1h 50min 38sec",
            "num_hosts": 52,
            "time_taken_manually_execute_minutes": 60,
            "time_taken_create_automation_minutes": 60,
            "successful_runs": 12,
            "failed_runs": 0,
            "automated_costs": "9670.27",
            "manual_costs": "140400.00",
            "savings": "130729.73",
            "job_template_id": 200,
            "time_savings": "176961.65",
            "time_savings_str": "49h 9min 21sec"
        },
        {
            "name": "Job template 11",
            "runs": 9,
            "elapsed": "4636.75",
            "cluster": 2,
            "elapsed_str": "1h 17min 16sec",
            "num_hosts": 53,
            "time_taken_manually_execute_minutes": 40,
            "time_taken_create_automation_minutes": 63,
            "successful_runs": 9,
            "failed_runs": 0,
            "automated_costs": "7703.59",
            "manual_costs": "95400.00",
            "savings": "87696.41",
            "job_template_id": 111,
            "time_savings": "118783.25",
            "time_savings_str": "32h 59min 43sec"
        },
        {
            "name": "Job template 12",
            "runs": 7,
            "elapsed": "4835.65",
            "cluster": 2,
            "elapsed_str": "1h 20min 35sec",
            "num_hosts": 36,
            "time_taken_manually_execute_minutes": 60,
            "time_taken_create_automation_minutes": 60,
            "successful_runs": 7,
            "failed_runs": 0,
            "automated_costs": "7777.43",
            "manual_costs": "97200.00",
            "savings": "89422.57",
            "job_template_id": 112,
            "time_savings": "121164.35",
            "time_savings_str": "33h 39min 24sec"
        },
        {
            "name": "Job template 13",
            "runs": 9,
            "elapsed": "3926.55",
            "cluster": 2,
            "elapsed_str": "1h 5min 26sec",
            "num_hosts": 37,
            "time_taken_manually_execute_minutes": 60,
            "time_taken_create_automation_minutes": 60,
            "successful_runs": 9,
            "failed_runs": 0,
            "automated_costs": "6822.88",
            "manual_costs": "99900.00",
            "savings": "93077.12",
            "job_template_id": 113,
            "time_savings": "125673.45",
            "time_savings_str": "34h 54min 33sec"
        },
        {
            "name": "Job template 14",
            "runs": 9,
            "elapsed": "5239.55",
            "cluster": 2,
            "elapsed_str": "1h 27min 19sec",
            "num_hosts": 36,
            "time_taken_manually_execute_minutes": 60,
            "time_taken_create_automation_minutes": 60,
            "successful_runs": 9,
            "failed_runs": 0,
            "automated_costs": "8201.53",
            "manual_costs": "97200.00",
            "savings": "88998.47",
            "job_template_id": 114,
            "time_savings": "120760.45",
            "time_savings_str": "33h 32min 40sec"
        },
        {
            "name": "Job template 15",
            "runs": 16,
            "elapsed": "9747.65",
            "cluster": 2,
            "elapsed_str": "2h 42min 27sec",
            "num_hosts": 85,
            "time_taken_manually_execute_minutes": 60,
            "time_taken_create_automation_minutes": 60,
            "successful_runs": 16,
            "failed_runs": 0,
            "automated_costs": "12935.03",
            "manual_costs": "229500.00",
            "savings": "216564.97",
            "job_template_id": 115,
            "time_savings": "292652.35",
            "time_savings_str": "81h 17min 32sec"
        },
        {
            "name": "Job template 16",
            "runs": 12,
            "elapsed": "6552.80",
            "cluster": 2,
            "elapsed_str": "1h 49min 12sec",
            "num_hosts": 50,
            "time_taken_manually_execute_minutes": 60,
            "time_taken_create_automation_minutes": 60,
            "successful_runs": 12,
            "failed_runs": 0,
            "automated_costs": "9580.44",
            "manual_costs": "135000.00",
            "savings": "125419.56",
            "job_template_id": 116,
            "time_savings": "169847.20",
            "time_savings_str": "47h 10min 47sec"
        },
        {
            "name": "Job template 17",
            "runs": 12,
            "elapsed": "5757.55",
            "cluster": 2,
            "elapsed_str": "1h 35min 57sec",
            "num_hosts": 65,
            "time_taken_manually_execute_minutes": 60,
            "time_taken_create_automation_minutes": 60,
            "successful_runs": 12,
            "failed_runs": 0,
            "automated_costs": "8745.43",
            "manual_costs": "175500.00",
            "savings": "166754.57",
            "job_template_id": 117,
            "time_savings": "224642.45",
            "time_savings_str": "62h 24min 2sec"
        }
    ]
}