{
    "count": 100,
    "next": "http://localhost:8000/api/v1/report/?date_range=month_to_date&ordering=name&page=2&page_size=10",
    "previous": null,
    "results": [
        {
            "name": "Job template 1",
            "runs": 32,
            "elapsed": "14712.15",
            "cluster": 2,
            "elapsed_str": "4h 5min 12sec",
            "num_hosts": 163,
            "time_taken_manually_execute_minutes": 60,
            "time_taken_create_automation_minutes": 260,
            "successful_runs": 32,
            "failed_runs": 0,
            "automated_costs": "26412.15",
            "manual_costs": "440100.00",
            "savings": "413687.85",
            "job_template_id": 101,
            "time_savings": "556487.85",
            "time_savings_str": "154h 34min 47sec"
        },
        {
            "name": "Job template 10",
            "runs": 27,
            "elapsed": "13939.10",
            "cluster": 2,
            "elapsed_str": "3h 52min 19sec",
            "num_hosts": 140,
            "time_taken_manually_execute_minutes": 60,
            "time_taken_create_automation_minutes": 60,
            "successful_runs": 27,
            "failed_runs": 0,
            "automated_costs": "16639.10",
            "manual_costs": "378000.00",
            "savings": "361360.90",
            "job_template_id": 110,
            "time_savings": "486460.90",
            "time_savings_str": "135h 7min 40sec"
        },
        {
            "name": "Job template 100",
            "runs": 32,
            "elapsed": "17666.70",
            "cluster": 2,
            "elapsed_str": "4h 54min 26sec",
            "num_hosts": 142,
            "time_taken_manually_execute_minutes": 60,
            "time_taken_create_automation_minutes": 60,
            "successful_runs": 32,
            "failed_runs": 0,
            "automated_costs": "20366.70",
            "manual_costs": "383400.00",
            "savings": "363033.30",
            "job_template_id": 200,
            "time_savings": "489933.30",
            "time_savings_str": "136h 5min 33sec"
        },
        {
            "name": "Job template 11",
            "runs": 29,
            "elapsed": "15319.45",
            "cluster": 2,
            "elapsed_str": "4h 15min 19sec",
            "num_hosts": 153,
            "time_taken_manually_execute_minutes": 40,
            "time_taken_create_automation_minutes": 63,
            "successful_runs": 29,
            "failed_runs": 0,
            "automated_costs": "18154.45",
            "manual_costs": "275400.00",
            "savings": "257245.55",
            "job_template_id": 111,
            "time_savings": "348100.55",
            "time_savings_str": "96h 41min 40sec"
        },
        {
            "name": "Job template 12",
            "runs": 38,
            "elapsed": "17847.85",
            "cluster": 2,
            "elapsed_str": "4h 57min 27sec",
            "num_hosts": 201,
            "time_taken_manually_execute_minutes": 60,
            "time_taken_create_automation_minutes": 60,
            "successful_runs": 38,
            "failed_runs": 0,
            "automated_costs": "20547.85",
            "manual_costs": "542700.00",
            "savings": "522152.15",
            "job_template_id": 112,
            "time_savings": "702152.15",
            "time_savings_str": "195h 2min 32sec"
        },
        {
            "name": "Job template 13",
            "runs": 43,
            "elapsed": "19552.75",
            "cluster": 2,
            "elapsed_str": "5h 25min 52sec",
            "num_hosts": 201,
            "time_taken_manually_execute_minutes": 60,
            "time_taken_create_automation_minutes": 60,
            "successful_runs": 43,
            "failed_runs": 0,
            "automated_costs": "22252.75",
            "manual_costs": "542700.00",
            "savings": "520447.25",
            "job_template_id": 113,
            "time_savings": "700447.25",
            "time_savings_str": "194h 34min 7sec"
        },
        {
            "name": "Job template 14",
            "runs": 41,
            "elapsed": "20637.10",
            "cluster": 2,
            "elapsed_str": "5h 43min 57sec",
            "num_hosts": 188,
            "time_taken_manually_execute_minutes": 60,
            "time_taken_create_automation_minutes": 60,
            "successful_runs": 41,
            "failed_runs": 0,
            "automated_costs": "23337.10",
            "manual_costs": "507600.00",
            "savings": "484262.90",
            "job_template_id": 114,
            "time_savings": "652562.90",
            "time_savings_str": "181h 16min 2sec"
        },
        {
            "name": "Job template 15",
            "runs": 39,
            "elapsed": "20774.90",
            "cluster": 2,
            "elapsed_str": "5h 46min 14sec",
            "num_hosts": 199,
            "time_taken_manually_execute_minutes": 60,
            "time_taken_create_automation_minutes": 60,
            "successful_runs": 39,
            "failed_runs": 0,
            "automated_costs": "23474.90",
            "manual_costs": "537300.00",
            "savings": "513825.10",
            "job_template_id": 115,
            "time_savings": "692025.10",
            "time_savings_str": "192h 13min 45sec"
        },
        {
            "name": "Job template 16",
            "runs": 36,
            "elapsed": "19876.35",
            "cluster": 2,
            "elapsed_str": "5h 31min 16sec",
            "num_hosts": 165,
            "time_taken_manually_execute_minutes": 60,
            "time_taken_create_automation_minutes": 60,
            "successful_runs": 36,
            "failed_runs": 0,
            "automated_costs": "22576.35",
            "manual_costs": "445500.00",
            "savings": "422923.65",
            "job_template_id": 116,
            "time_savings": "570523.65",
            "time_savings_str": "158h 28min 43sec"
        },
        {
            "name": "Job template 17",
            "runs": 41,
            "elapsed": "22161.20",
            "cluster": 2,
            "elapsed_str": "6h 9min 21sec",
            "num_hosts": 206,
            "time_taken_manually_execute_minutes": 60,
            "time_taken_create_automation_minutes": 60,
            "successful_runs": 41,
            "failed_runs": 0,
            "automated_costs": "24861.20",
            "manual_costs": "556200.00",
            "savings": "531338.80",
            "job_template_id": 117,
            "time_savings": "715838.80",
            "time_savings_str": "198h 50min 38sec"
        }
    ]
}